[gd_scene load_steps=4 format=3 uid="uid://dd48slv6txdwq"]

[ext_resource type="Script" path="res://src/enemies/BabyEnemy.gd" id="1_ore7i"]

[sub_resource type="RectangleShape2D" id="RectangleShape2D_iwjap"]
size = Vector2(6, 4)

[sub_resource type="RectangleShape2D" id="RectangleShape2D_2rilg"]
size = Vector2(8, 6)

[node name="BabyEnemy" type="CharacterBody2D"]
collision_layer = 4
collision_mask = 17
motion_mode = 1
script = ExtResource("1_ore7i")

[node name="Skin" type="Polygon2D" parent="."]
color = Color(1, 0, 0, 1)
polygon = PackedVector2Array(5, 0, -3, 3, -3, -3)
metadata/_edit_lock_ = true

[node name="CollisionShape2D" type="CollisionShape2D" parent="."]
position = Vector2(1, 0)
shape = SubResource("RectangleShape2D_iwjap")

[node name="AttackArea" type="Area2D" parent="."]
collision_layer = 0
monitorable = false

[node name="CollisionShape2D" type="CollisionShape2D" parent="AttackArea"]
position = Vector2(1, 0)
shape = SubResource("RectangleShape2D_2rilg")
