[gd_scene load_steps=5 format=3 uid="uid://c5llwq0vpri26"]

[ext_resource type="Script" path="res://src/enemies/BroodEnemy.gd" id="1_qwnuo"]
[ext_resource type="PackedScene" uid="uid://dd48slv6txdwq" path="res://src/enemies/BabyEnemy.tscn" id="2_fxu50"]

[sub_resource type="CircleShape2D" id="CircleShape2D_w28pn"]
radius = 9.0

[sub_resource type="CircleShape2D" id="CircleShape2D_e0yjh"]

[node name="BroodEnemy" type="CharacterBody2D"]
collision_layer = 4
collision_mask = 17
motion_mode = 1
script = ExtResource("1_qwnuo")
baby_enemy_scene = ExtResource("2_fxu50")

[node name="Skin" type="Polygon2D" parent="."]
color = Color(1, 0, 0, 1)
polygon = PackedVector2Array(0, -14, 2, -9, 8, -8, 9, -2, 14, 0, 9, 2, 8, 8, 2, 9, 0, 14, -2, 9, -8, 8, -9, 2, -14, 0, -9, -2, -8, -8, -2, -9)
metadata/_edit_lock_ = true

[node name="CollisionShape2D" type="CollisionShape2D" parent="."]
shape = SubResource("CircleShape2D_w28pn")

[node name="AttackArea" type="Area2D" parent="."]
collision_layer = 0
monitorable = false

[node name="CollisionShape2D" type="CollisionShape2D" parent="AttackArea"]
shape = SubResource("CircleShape2D_e0yjh")
