[gd_scene load_steps=2 format=3 uid="uid://cen73ytgy4awf"]

[ext_resource type="Script" path="res://src/SignalBus.gd" id="1_svtld"]

[node name="ExperienceBus" type="Node"]
script = ExtResource("1_svtld")
