[gd_scene load_steps=2 format=3 uid="uid://cjsitrpwnkdsm"]

[ext_resource type="Script" path="res://src/inventory/Inventory.gd" id="1_04txl"]

[node name="Inventory" type="Node"]
script = ExtResource("1_04txl")
